launch IonsNLO_pp_AAxx_NLOQCD
order=NLO
fixed_order=ON
set MT 172.9
set MH 125.1
set req_acc_FO 0.002
set LHC 1
set pdlabel lhapdf
set reweight_scale true
set reweight_PDF true
set no_parton_cut
set jetalgo -1
set jetradius 0.4
set ickkw 0
set ptgmin 150
set etagamma 2.4
set r0gamma 0.4
set xn 1.0
set epsgamma 1.0
set lhaid 990131054 #pdf Xe
done

launch IonsNLO_pp_AAxx_NLOQCD
order=NLO
fixed_order=ON
set LHC 3
done


launch IonsNLO_pp_AAxx_NLOQCD
order=NLO
fixed_order=ON
set LHC 5
done


launch IonsNLO_pp_AAxx_NLOQCD
order=NLO
fixed_order=ON
set LHC 7
done


launch IonsNLO_pp_AAxx_NLOQCD
order=NLO
fixed_order=ON
set LHC 9
done


launch IonsNLO_pp_AAxx_NLOQCD
order=NLO
fixed_order=ON
set LHC 11
done


launch IonsNLO_pp_AAxx_NLOQCD
order=NLO
fixed_order=ON
set LHC 13
done


launch IonsNLO_pp_AAxx_NLOQCD
order=NLO
fixed_order=ON
set LHC 15
done


launch IonsNLO_pp_AAxx_NLOQCD
order=NLO
fixed_order=ON
set LHC 17
done


launch IonsNLO_pp_AAxx_NLOQCD
order=NLO
fixed_order=ON
set LHC 19
done


launch IonsNLO_pp_AAxx_NLOQCD
order=NLO
fixed_order=ON
set LHC 21
done


launch IonsNLO_pp_AAxx_NLOQCD
order=NLO
fixed_order=ON
set LHC 23
done


launch IonsNLO_pp_AAxx_NLOQCD
order=NLO
fixed_order=ON
set LHC 25
done


launch IonsNLO_pp_AAxx_NLOQCD
order=NLO
fixed_order=ON
set LHC 27
done


launch IonsNLO_pp_AAxx_NLOQCD
order=NLO
fixed_order=ON
set LHC 29
done


launch IonsNLO_pp_AAxx_NLOQCD
order=NLO
fixed_order=ON
set LHC 31
done


launch IonsNLO_pp_AAxx_NLOQCD
order=NLO
fixed_order=ON
set LHC 33
done


launch IonsNLO_pp_AAxx_NLOQCD
order=NLO
fixed_order=ON
set LHC 35
done


launch IonsNLO_pp_AAxx_NLOQCD
order=NLO
fixed_order=ON
set LHC 37
done


launch IonsNLO_pp_AAxx_NLOQCD
order=NLO
fixed_order=ON
set LHC 39
done


launch IonsNLO_pp_AAxx_NLOQCD
order=NLO
fixed_order=ON
set LHC 41
done


launch IonsNLO_pp_AAxx_NLOQCD
order=NLO
fixed_order=ON
set LHC 43
done


launch IonsNLO_pp_AAxx_NLOQCD
order=NLO
fixed_order=ON
set LHC 45
done


launch IonsNLO_pp_AAxx_NLOQCD
order=NLO
fixed_order=ON
set LHC 47
done


launch IonsNLO_pp_AAxx_NLOQCD
order=NLO
fixed_order=ON
set LHC 49
done


launch IonsNLO_pp_AAxx_NLOQCD
order=NLO
fixed_order=ON
set LHC 51
done


launch IonsNLO_pp_AAxx_NLOQCD
order=NLO
fixed_order=ON
set LHC 53
done


launch IonsNLO_pp_AAxx_NLOQCD
order=NLO
fixed_order=ON
set LHC 55
done


launch IonsNLO_pp_AAxx_NLOQCD
order=NLO
fixed_order=ON
set LHC 57
done


launch IonsNLO_pp_AAxx_NLOQCD
order=NLO
fixed_order=ON
set LHC 59
done


launch IonsNLO_pp_AAxx_NLOQCD
order=NLO
fixed_order=ON
set LHC 61
done


launch IonsNLO_pp_AAxx_NLOQCD
order=NLO
fixed_order=ON
set LHC 63
done


launch IonsNLO_pp_AAxx_NLOQCD
order=NLO
fixed_order=ON
set LHC 65
done


launch IonsNLO_pp_AAxx_NLOQCD
order=NLO
fixed_order=ON
set LHC 67
done


launch IonsNLO_pp_AAxx_NLOQCD
order=NLO
fixed_order=ON
set LHC 69
done


launch IonsNLO_pp_AAxx_NLOQCD
order=NLO
fixed_order=ON
set LHC 71
done


launch IonsNLO_pp_AAxx_NLOQCD
order=NLO
fixed_order=ON
set LHC 73
done


launch IonsNLO_pp_AAxx_NLOQCD
order=NLO
fixed_order=ON
set LHC 75
done


launch IonsNLO_pp_AAxx_NLOQCD
order=NLO
fixed_order=ON
set LHC 77
done


launch IonsNLO_pp_AAxx_NLOQCD
order=NLO
fixed_order=ON
set LHC 79
done


launch IonsNLO_pp_AAxx_NLOQCD
order=NLO
fixed_order=ON
set LHC 81
done


launch IonsNLO_pp_AAxx_NLOQCD
order=NLO
fixed_order=ON
set LHC 83
done


launch IonsNLO_pp_AAxx_NLOQCD
order=NLO
fixed_order=ON
set LHC 85
done


launch IonsNLO_pp_AAxx_NLOQCD
order=NLO
fixed_order=ON
set LHC 87
done


launch IonsNLO_pp_AAxx_NLOQCD
order=NLO
fixed_order=ON
set LHC 89
done


launch IonsNLO_pp_AAxx_NLOQCD
order=NLO
fixed_order=ON
set LHC 91
done


launch IonsNLO_pp_AAxx_NLOQCD
order=NLO
fixed_order=ON
set LHC 93
done


launch IonsNLO_pp_AAxx_NLOQCD
order=NLO
fixed_order=ON
set LHC 95
done


launch IonsNLO_pp_AAxx_NLOQCD
order=NLO
fixed_order=ON
set LHC 97
done


launch IonsNLO_pp_AAxx_NLOQCD
order=NLO
fixed_order=ON
set LHC 99
done


launch IonsNLO_pp_AAxx_NLOQCD
order=NLO
fixed_order=ON
set LHC 101
done


launch IonsNLO_pp_AAxx_NLOQCD
order=NLO
fixed_order=ON
set LHC 103
done


launch IonsNLO_pp_AAxx_NLOQCD
order=NLO
fixed_order=ON
set LHC 105
done


launch IonsNLO_pp_AAxx_NLOQCD
order=NLO
fixed_order=ON
set LHC 107
done


launch IonsNLO_pp_AAxx_NLOQCD
order=NLO
fixed_order=ON
set LHC 109
done


launch IonsNLO_pp_AAxx_NLOQCD
order=LO
fixed_order=ON
set LHC 1
done


launch IonsNLO_pp_AAxx_NLOQCD
order=LO
fixed_order=ON
set LHC 3
done


launch IonsNLO_pp_AAxx_NLOQCD
order=LO
fixed_order=ON
set LHC 5
done


launch IonsNLO_pp_AAxx_NLOQCD
order=LO
fixed_order=ON
set LHC 7
done


launch IonsNLO_pp_AAxx_NLOQCD
order=LO
fixed_order=ON
set LHC 9
done


launch IonsNLO_pp_AAxx_NLOQCD
order=LO
fixed_order=ON
set LHC 11
done


launch IonsNLO_pp_AAxx_NLOQCD
order=LO
fixed_order=ON
set LHC 13
done


launch IonsNLO_pp_AAxx_NLOQCD
order=LO
fixed_order=ON
set LHC 15
done


launch IonsNLO_pp_AAxx_NLOQCD
order=LO
fixed_order=ON
set LHC 17
done


launch IonsNLO_pp_AAxx_NLOQCD
order=LO
fixed_order=ON
set LHC 19
done


launch IonsNLO_pp_AAxx_NLOQCD
order=LO
fixed_order=ON
set LHC 21
done


launch IonsNLO_pp_AAxx_NLOQCD
order=LO
fixed_order=ON
set LHC 23
done


launch IonsNLO_pp_AAxx_NLOQCD
order=LO
fixed_order=ON
set LHC 25
done


launch IonsNLO_pp_AAxx_NLOQCD
order=LO
fixed_order=ON
set LHC 27
done


launch IonsNLO_pp_AAxx_NLOQCD
order=LO
fixed_order=ON
set LHC 29
done


launch IonsNLO_pp_AAxx_NLOQCD
order=LO
fixed_order=ON
set LHC 31
done


launch IonsNLO_pp_AAxx_NLOQCD
order=LO
fixed_order=ON
set LHC 33
done


launch IonsNLO_pp_AAxx_NLOQCD
order=LO
fixed_order=ON
set LHC 35
done


launch IonsNLO_pp_AAxx_NLOQCD
order=LO
fixed_order=ON
set LHC 37
done


launch IonsNLO_pp_AAxx_NLOQCD
order=LO
fixed_order=ON
set LHC 39
done


launch IonsNLO_pp_AAxx_NLOQCD
order=LO
fixed_order=ON
set LHC 41
done


launch IonsNLO_pp_AAxx_NLOQCD
order=LO
fixed_order=ON
set LHC 43
done


launch IonsNLO_pp_AAxx_NLOQCD
order=LO
fixed_order=ON
set LHC 45
done


launch IonsNLO_pp_AAxx_NLOQCD
order=LO
fixed_order=ON
set LHC 47
done


launch IonsNLO_pp_AAxx_NLOQCD
order=LO
fixed_order=ON
set LHC 49
done


launch IonsNLO_pp_AAxx_NLOQCD
order=LO
fixed_order=ON
set LHC 51
done


launch IonsNLO_pp_AAxx_NLOQCD
order=LO
fixed_order=ON
set LHC 53
done


launch IonsNLO_pp_AAxx_NLOQCD
order=LO
fixed_order=ON
set LHC 55
done


launch IonsNLO_pp_AAxx_NLOQCD
order=LO
fixed_order=ON
set LHC 57
done


launch IonsNLO_pp_AAxx_NLOQCD
order=LO
fixed_order=ON
set LHC 59
done


launch IonsNLO_pp_AAxx_NLOQCD
order=LO
fixed_order=ON
set LHC 61
done


launch IonsNLO_pp_AAxx_NLOQCD
order=LO
fixed_order=ON
set LHC 63
done


launch IonsNLO_pp_AAxx_NLOQCD
order=LO
fixed_order=ON
set LHC 65
done


launch IonsNLO_pp_AAxx_NLOQCD
order=LO
fixed_order=ON
set LHC 67
done


launch IonsNLO_pp_AAxx_NLOQCD
order=LO
fixed_order=ON
set LHC 69
done


launch IonsNLO_pp_AAxx_NLOQCD
order=LO
fixed_order=ON
set LHC 71
done


launch IonsNLO_pp_AAxx_NLOQCD
order=LO
fixed_order=ON
set LHC 73
done


launch IonsNLO_pp_AAxx_NLOQCD
order=LO
fixed_order=ON
set LHC 75
done


launch IonsNLO_pp_AAxx_NLOQCD
order=LO
fixed_order=ON
set LHC 77
done


launch IonsNLO_pp_AAxx_NLOQCD
order=LO
fixed_order=ON
set LHC 79
done


launch IonsNLO_pp_AAxx_NLOQCD
order=LO
fixed_order=ON
set LHC 81
done


launch IonsNLO_pp_AAxx_NLOQCD
order=LO
fixed_order=ON
set LHC 83
done


launch IonsNLO_pp_AAxx_NLOQCD
order=LO
fixed_order=ON
set LHC 85
done


launch IonsNLO_pp_AAxx_NLOQCD
order=LO
fixed_order=ON
set LHC 87
done


launch IonsNLO_pp_AAxx_NLOQCD
order=LO
fixed_order=ON
set LHC 89
done


launch IonsNLO_pp_AAxx_NLOQCD
order=LO
fixed_order=ON
set LHC 91
done


launch IonsNLO_pp_AAxx_NLOQCD
order=LO
fixed_order=ON
set LHC 93
done


launch IonsNLO_pp_AAxx_NLOQCD
order=LO
fixed_order=ON
set LHC 95
done


launch IonsNLO_pp_AAxx_NLOQCD
order=LO
fixed_order=ON
set LHC 97
done


launch IonsNLO_pp_AAxx_NLOQCD
order=LO
fixed_order=ON
set LHC 99
done


launch IonsNLO_pp_AAxx_NLOQCD
order=LO
fixed_order=ON
set LHC 101
done


launch IonsNLO_pp_AAxx_NLOQCD
order=LO
fixed_order=ON
set LHC 103
done


launch IonsNLO_pp_AAxx_NLOQCD
order=LO
fixed_order=ON
set LHC 105
done


launch IonsNLO_pp_AAxx_NLOQCD
order=LO
fixed_order=ON
set LHC 107
done


launch IonsNLO_pp_AAxx_NLOQCD
order=LO
fixed_order=ON
set LHC 109
done


