# R. Ruiz
# 2022 June

#set acknowledged_v3.1_syntax true
#convert model ./models/SM_ZeeBabu_NLO
import model SM_ZeeBabu_NLO
define kk = k++ k--
define hh = h+  h-

###########################
## k++ k-- pair production ##
###########################
generate g g > kk kk QED=2 QCD=2 [noborn=QCD]
output ZeeBabu_GGF_kppkmm_XLO_LHCX14 -f

launch ZeeBabu_GGF_kppkmm_XLO_LHCX14 -n XLO_LHCX14
shower=OFF
madspin=OFF
analysis=OFF
set mkZB scan1:range(50,1401,25)
set mhZB scan1:range(50,1401,25)
set lamhZBH 0.1
set lamkZBH 1.0
set lhc 14
set use_syst True
set run_card nevents 100k
set pdlabel lhapdf
set lhaid 26300 # MMHT2015qed_nnlo
set dynamical_scale_choice 4 # 4=dynamical_scale_choice = hard/partonic cm scale
set no_parton_cut
done




